$ResFormat /* GetDP 3.3.1-git-9b9a31c, ascii */
1.1 0
$EndResFormat
$Solution  /* DofData #0 */
0 0 0 0
4.813655826413543e-05 0
9.392530102926324e-05 0
0.000139455530348117 0
0.0001857185118984698 0
0.0002341473797229944 0
0.0002856638623607053 0
0.0003408641227514712 0
0.0004000287246788339 0
0.0004631574228908254 0
0.0005304387111350752 0
0.0006008581254781602 0
0.0006722392869730096 0
0.0007442835532527132 0
0.000814495218259101 0
0.0008813761820801841 0
0.0009434419154174221 0
0.000799570024438963 0
0.000622311758907559 0
0.000465557946525596 0
0.0003269342630398359 0
0.0002043380557322426 0
9.590750622076924e-05 0
0.0007991480569491046 0
0.0006892636857040542 0
0.0006008387133594296 0
0.0005254674478091715 0
0.0004581011057005582 0
0.0003968335979694694 0
0.0003404015887731594 0
0.0002887351258116225 0
0.0002418635645782427 0
0.0001992593208511161 0
0.0001612214041815311 0
0.0001281302196956263 0
9.966921670223765e-05 0
7.577594604712928e-05 0
5.634293371464415e-05 0
4.11256840345884e-05 0
2.941481087832809e-05 0
2.076947377560665e-05 0
1.445359547410117e-05 0
1.007258139491507e-05 0
7.056030772530529e-06 0
5.04044158215329e-06 0
3.624746828498802e-06 0
2.634414922022184e-06 0
1.897379354894274e-06 0
1.359494825834081e-06 0
9.237796852337934e-07 0
5.694376400214583e-07 0
2.771113054023536e-07 0
0.0009138327770762491 0
0.0009168860867540891 0
0.0009224965353045599 0
0.000713957532888577 0
0.0004818517605860035 0
0.0009096502886858044 0
0.0001236313421539542 0
0.0008888793142585278 0
0.0008567145361774841 0
0.0005404987866206135 0
0.0003577237097846408 0
0.0002615343778317385 0
0.000171976149678856 0
0.0001068521815579064 0
0.000144807642104166 0
0.0001888601609303435 0
9.878462980123906e-05 0
0.0001712830753048757 0
0.0008482873483138836 0
0.0001583355336186983 0
5.967494509410845e-05 0
0.0002634278468593188 0
2.984057574438394e-05 0
6.953736353916517e-05 0
1.349873720524927e-05 0
0.0001172608754723118 0
0.0001498133163661975 0
0.0002087245298077577 0
0.0002149248052109375 0
0.0003260130715256024 0
0.0003877048778353678 0
0.0004928890730171612 0
0.0005476657199952478 0
0.0004021881872859366 0
0.0006582246688599311 0
0.0006843887032032601 0
0.0005886443722617329 0
0.0006055983721738704 0
0.0007183549725544654 0
0.0006207557606082183 0
0.0005112980051868717 0
0.0007567762888222048 0
0.0006482503544960804 0
0.0005093752640032254 0
0.0005393604269865426 0
0.0003965295917569428 0
0.000672704264766878 0
0.0005686732291120214 0
0.0007124553111281546 0
0.0006046625729132454 0
0.0004579945378968504 0
0.0004832304086487577 0
0.00063249123416588 0
0.0005240633653677869 0
0.0003572720021591333 0
0.0006640174110682547 0
0.0005576184716353824 0
0.0002857189372633807 0
0.0003500998292255229 0
0.0007370953977105054 0
0.000790344049767762 0
0.0001062947093670262 0
4.833593762935392e-05 0
2.789133543064258e-05 0
0.0006956834634490293 0
0.0005815416165172528 0
0.0004191508217216655 0
0.0004591057359178299 0
0.0005969998213464485 0
0.0004961871314680687 0
0.0003531200769633147 0
0.0003893941705569863 0
0.0005317666851170325 0
0.0004305831669742005 0
0.0002835461992504406 0
0.0007999743227535605 0
0.0001746987991402402 0
0.0006480935003527684 0
0.0001556309745443066 0
0.0008571453782039648 0
0.00018198001462043 0
0.00082479733496839 0
0.0005893333527122244 0
0.0007759036980603361 0
0.0008566682721576583 0
0.0004348327294415404 0
5.636554797855517e-06 0
0.0001501184676203898 0
0.0001310357068263653 0
0.0002862019940802941 0
0.000313496927872011 0
0.000694734534591279 0
0.0005926253843750424 0
0.0006964066204002914 0
0.000889512206258656 0
0.0007669449071517754 0
0.0007741372704418423 0
0.0008366857488807118 0
0.0003881763335751289 0
0.0008909421439837176 0
0.0007720115835529286 0
0.0007161292629895922 0
0.0001375970239442235 0
0.0003325195623434666 0
0.0003313392945116197 0
0.000554344212178623 0
0.0009202927967323608 0
3.373717460348376e-06 0
0.000224156090098972 0
9.019122683280575e-06 0
0.0009026989438582256 0
2.012155191056468e-05 0
1.444221995405349e-05 0
4.253850399628595e-05 0
8.07381681887644e-05 0
8.014024602922358e-05 0
0.0009181206575469301 0
0.0001377111120613986 0
0.000213786634932082 0
0.0002951392163254874 0
0.0003072182404538161 0
0.0004141460109439303 0
0.0009321957692974777 0
0.0009306431261709606 0
0.0001850690146630995 0
0.0006292179063895849 0
0.0003579541894530879 0
0.0002537930311372264 0
0.0004500060465172408 0
0.0001851478626114454 0
0.0008325192698568683 0
0.0003639274078895402 0
2.693978963849055e-05 0
0.0008954699474004755 0
2.223193245220526e-06 0
0.0004321490610500395 0
0.0008399943123411149 0
0.0008404536310075234 0
0.0007196523490233102 0
8.117026685346174e-05 0
0.0005065376067680648 0
0.0005043726087571323 0
0.0008474926850919637 0
0.0002943092433506248 0
0.000180609776537888 0
0.0008940587748956213 0
0.000146456398305773 0
0.0004533127057855093 0
1.526944688868652e-06 0
7.003012563643638e-08 0
1.11591984949386e-05 0
0.0002302458344984482 0
0.0007919513267492963 0
0.0009266343038501912 0
5.704554951557413e-05 0
0.0002882187649993524 0
0.0008355437635349283 0
0.0002036183039128711 0
0.0008546984929582768 0
0.0008423796380777514 0
0.0008313322671440003 0
0.000338100595725999 0
6.581918524814639e-06 0
0.0009169028693742285 0
3.856473679136774e-06 0
1.363771263657213e-06 0
2.149766178671309e-07 0
0.0002674457108331493 0
7.305353646401588e-05 0
0.0002908996743072 0
0.000132678757021645 0
0.0006048282736882401 0
8.046009102326148e-07 0
0.0004467053440309592 0
0.0004327663091982692 0
0.0002313142156180793 0
4.267682580288958e-05 0
0.000261439431890566 0
0.0005117377256365466 0
3.824963199546309e-07 0
0.0007365548758489218 0
8.652437126957663e-05 0
0.0007993146026505195 0
5.091052992481046e-07 0
0.0007559672719030947 0
0.0004603585192489738 0
0.0009224910737056693 0
0.00096487556305953 0
0.0002141540101078589 0
7.917392053613841e-05 0
3.452184257993546e-05 0
0.0009680333535647793 0
0.0003082700578691231 0
0.0004921694744318481 0
2.068922770957683e-05 0
1.196241082124085e-05 0
0.0009669853149294503 0
0.0009524656986125489 0
2.286665929060819e-05 0
0.0007163924096809933 0
0.0001601024808833661 0
0.0009597704219600884 0
0.0006650291620809858 0
7.206014792013819e-06 0
6.452529447638146e-06 0
4.95905035879545e-05 0
0.0001569302268133925 0
0.0003445810828115591 0
0.000962558100213212 0
0.0009645332204697538 0
1.307667440964788e-05 0
3.595592676540177e-05 0
6.435825054803371e-06 0
0.0008457830792770665 0
0.0008562106590068638 0
0.0008386896067423935 0
6.93648727668067e-05 0
4.051128784982485e-06 0
0.000895017439610896 0
0.0008247360326855514 0
0.0009127654346449289 0
0.000873053460387584 0
0.0008156134439698298 0
0.0008409958032753701 0
0.0007858407263733895 0
0.0008073724243440225 0
0.0007507775566750622 0
0.0007690210682124284 0
0.0007128833984046735 0
0.0007261186751882028 0
0.0006715882105017524 0
0.0006839174230663702 0
0.0006193880453129984 0
0.0006213610039340567 0
0.0005647101702037371 0
0.0005505607227311846 0
0.0005055520277093163 0
0.0004774778548921949 0
0.0004417028477550063 0
0.0004098207730844978 0
0.0003823974266589916 0
0.0003457185785404594 0
0.0003244653393656337 0
0.0002901758300966262 0
0.0002748427810783686 0
0.0002400379072285276 0
0.0002302294586385929 0
0.0001963619499473427 0
0.0001908480275160353 0
0.000219865190048058 0
0.0001806457044317526 0
0.000155442169807754 0
0.000147595833760589 0
0.0001251077149234064 0
0.0004022879428444269 0
0.0001674131538151616 0
0.0001188074667527557 0
9.927211043943315e-05 0
9.372665542298474e-05 0
7.668307113952543e-05 0
0.0004317572458096553 0
0.0006747671798765454 0
0.0006543925769898896 0
0.000131919062886019 0
7.208286483167976e-05 0
5.838333911376108e-05 0
0.0003055139295586674 0
7.778898662228052e-05 0
0.0001090879205218633 0
0.0003029914419344522 0
0.0001922977415393789 0
0.0005200832326884014 0
5.411296844155718e-05 0
0.0007822280053315534 0
4.367237805879919e-05 0
4.438018866162006e-05 0
6.38782753354003e-05 0
3.758279995840802e-05 0
3.304974075846227e-05 0
3.182619714267494e-05 0
4.119942288797024e-05 0
2.758718015974633e-05 0
2.130280628863602e-05 0
0.0008630007384053602 0
3.422521984921683e-05 0
0.0001603620175820749 0
0.0001492723568802003 0
0.0001243522542749662 0
0.0001773418957743665 0
0.000131452662052945 0
0.0001575047453749964 0
0.0002080359726590982 0
0.0001853037328071956 0
0.0002444958367510675 0
0.0002111049380752764 0
0.0002857488459439989 0
0.0002593504944458635 0
0.0003365438320862342 0
0.0003487941488147415 0
0.0004083300811776608 0
0.0004008079566008193 0
0.0004758553867700792 0
0.000472773293601646 0
0.0007565432584621577 0
0.0007528099801394589 0
0.0008134697372010395 0
0.0007473704803198825 0
0.0007980674654835609 0
0.0007370604937645119 0
0.0007954549259329113 0
0.0007264076486206261 0
0.0007729316853620025 0
0.0006740612804891846 0
0.0006687704594188834 0
0.0006862574213995067 0
0.000834689480894788 0
0.0008104748793229736 0
0.0006109994415051421 0
0.0008681466029067633 0
0.0008438081141761007 0
0.0007875443534671305 0
0.0006133169663716853 0
0.0008198681232907928 0
0.000873149354983632 0
0.0008484312412949835 0
0.0003853667060485357 0
0.0008683548890431482 0
0.0005454771008917568 0
0.0005481042197392038 0
0.0008961376263394319 0
0.0008765322476381732 0
0.0004681261988093248 0
0.0005444412912836546 0
0.0008937962315498677 0
0.0007365857376845714 0
0.0007668049161979164 0
0.000151163881505946 0
0.0009260520332015493 0
5.04176549817246e-05 0
4.116840039230969e-05 0
5.983204209498491e-05 0
4.824213513108998e-05 0
7.112104100424451e-05 0
3.01295266699354e-05 0
5.556773778519595e-05 0
0.0001351229784835355 0
0.000109465180858983 0
9.085774031006164e-05 0
0.0001043495136935497 0
9.148465695320124e-05 0
0.000323059211792057 0
0.0003130682407190671 0
0.000544605249099856 0
0.0006268774144438014 0
0.0001051886967077543 0
6.96518367829032e-05 0
8.406767229093621e-05 0
0.0008285334764265889 0
0.0008585328487255584 0
2.057897249979073e-05 0
0.0006150409146732147 0
0.0005545616807060698 0
0.0002242769470755159 0
0.0008862956906897007 0
0.0009014646791911192 0
0.0008964480024962833 0
2.558471085106104e-05 0
0.0009244656093094229 0
0.00055655279176698 0
0.0005125647190932521 0
0.0004533015713154322 0
0.0004666578974354659 0
0.0004129518085572258 0
0.0004185260065343354 0
0.0003667605527434193 0
0.0003636002471633804 0
0.0003178968363849457 0
0.00032216414847918 0
0.0002766606068770679 0
0.0002705065008235958 0
0.0002335658255012675 0
0.0002357564321196495 0
0.0001974369413939425 0
0.000198286665661948 0
0.0001639756817741561 0
0.000162579818416541 0
0.0001308737684261198 0
0.0001284383243764646 0
9.927282397963174e-05 0
0.0001011366487900849 0
7.448425568122405e-05 0
7.608167366863043e-05 0
0.0002340313638109264 0
0.0005760401697517484 0
9.224303246403141e-05 0
0.0003965160731892488 0
0.0002232613440858969 0
0.0001227625538959834 0
0.0006198863831124096 0
0.0002063068022503783 0
0.0006379395554527246 0
0.0005906098046067289 0
0.0006131227567057859 0
0.000526659662853558 0
0.0004754275109241249 0
3.94270712417114e-05 0
0.0005291044762878675 0
0.0009274796649911179 0
0.0009367771656038799 0
2.741406134840968e-05 0
0.0004788963866363964 0
0.000361354163942683 0
9.913570055055036e-05 0
5.024421519690084e-05 0
3.799927937179323e-05 0
1.759768447241054e-05 0
2.88156728981667e-05 0
2.127908729306385e-05 0
8.685179046526504e-06 0
1.529617826662924e-05 0
2.4470404197416e-05 0
5.951319559768444e-05 0
9.342290497448438e-06 0
1.555712511067833e-05 0
8.852018700146025e-06 0
4.39460858352337e-06 0
0.0001107874142242061 0
0.0001620530493471048 0
0.000420490919233946 0
7.328280570413593e-06 0
1.518640205732103e-05 0
1.320000601536236e-05 0
2.344682174071339e-05 0
1.470933126788477e-05 0
0.000681605099767652 0
0.0002554380157377633 0
0.0009660696899067028 0
0.0009118381872289523 0
0.0001080264546261195 0
2.89030893002541e-05 0
5.621625679234127e-06 0
1.454913038835618e-05 0
1.194546997636776e-05 0
0.000961416090028683 0
0.0009275145742826901 0
2.536614611586579e-05 0
0.0001279901191897681 0
5.054189700820054e-05 0
0.0007833153913430906 0
0.0009597392599863553 0
0.0009640053783206235 0
0.0009668197443555481 0
0.0007647264245625851 0
0.0007488151246658653 0
0.0009658053603312309 0
0.0005465898462801742 0
0.0001984079643344424 0
0.0002130530350319802 0
4.84653446367035e-05 0
0.0008888653229945276 0
0.0009680149520451929 0
7.114340635630142e-05 0
0.0009663487711650098 0
0.0003097438732838264 0
0.0001205774826803397 0
0.000177913202258726 0
4.761451613696548e-05 0
0.0002561934402775132 0
0.0009477620371592744 0
0.0002998300830738897 0
0.0002556575553824144 0
0.0007404983654216876 0
0.0004006108981845493 0
0.0005871510788458766 0
0.0003100316090553078 0
4.317330750323439e-06 0
3.506275793717755e-05 0
7.136541010300636e-05 0
0.0001046011603133742 0
0.0002735647926020325 0
0.0009619202547484108 0
0.000420822272272757 0
0.000731426080256988 0
8.033463737956378e-05 0
0.0005403144349818722 0
0.0001628137743396371 0
0.0003526780683506368 0
0.0007972441579073068 0
3.661459905218152e-06 0
6.515150156800752e-05 0
2.482716375030945e-05 0
0.0006073221650371452 0
0.0001560103757690585 0
0.0002607404456897019 0
1.775079327826817e-05 0
6.920508936456208e-05 0
8.509915934870793e-05 0
0.0001346641325301793 0
0.0003682340272843767 0
0.0003448488581608369 0
0.0001926761748448027 0
0.0009211091347337432 0
0.0006185589171780124 0
0.000627039149862868 0
0.0003489283446725319 0
0.0001362302580669896 0
0.0006959323188175978 0
0.0002594306803542391 0
0.000432748064106034 0
0.0002569047741724522 0
0.000756480937556828 0
0.0002048025530625045 0
0.000403664849871809 0
0.0009229142398628203 0
0.000460256900962826 0
0.0007531552304560349 0
0.0006879133259811908 0
7.699698653861006e-05 0
0.0008314623907178396 0
0.000717583783485053 0
0.0004673845668324054 0
0.000693451678526945 0
0.0006928951935849906 0
2.341453213697397e-05 0
0.0006912733260416708 0
0.0009353116530536528 0
0.0009358803453530045 0
0.0009726613734550143 0
6.344145420955516e-05 0
1.010584691495036e-05 0
3.619557789265947e-05 0
5.701732561987361e-05 0
0.0009305514607710742 0
3.174292151010191e-05 0
0.0001957971029058451 0
0.0004888465901191128 0
4.790256923765339e-05 0
0.0003539923050894482 0
0.0009631931907886934 0
3.221830355804544e-05 0
0.0009198943089563088 0
0.0008667972733929777 0
1.724855211525468e-06 0
1.440448005443106e-05 0
0.000566439220269835 0
0.0009389687059124509 0
6.804152715864374e-05 0
0.0009521717205320525 0
6.622100014201664e-05 0
0.0009351284388517042 0
0.000940567057699592 0
0.0001199497229305694 0
0.0001143381505319659 0
0.0003684045155800537 0
1.410869365783808e-06 0
0.000302890316559378 0
0.0001011308194468907 0
0.0008582755985313949 0
0.0009333138112203866 0
0.0001867164097062818 0
0.0005015270462381939 0
5.190993821970327e-05 0
8.997647975731632e-05 0
7.636191217626499e-05 0
0.0002628270579099239 0
0.0003688158465934927 0
0.0004775960273040748 0
0.0006592013305963697 0
0.0001081538811000283 0
0.0008856749867202146 0
0.0008404963246156371 0
0.0001571025931839048 0
0.0008991483497616741 0
4.797091060220057e-05 0
0.0005100715089229807 0
0.0002705732286192937 0
1.777497678189935e-05 0
0.0007201715675092617 0
0.000667774154266775 0
8.824301003700022e-06 0
0.0009068229234345554 0
3.679581100300571e-05 0
3.844452604236514e-06 0
$EndSolution
