<?xml version="1.0" encoding="UTF-8" standalone="no"?>
<!-- Created with Inkscape (http://www.inkscape.org/) -->

<svg
   xmlns:osb="http://www.openswatchbook.org/uri/2009/osb"
   xmlns:dc="http://purl.org/dc/elements/1.1/"
   xmlns:cc="http://creativecommons.org/ns#"
   xmlns:rdf="http://www.w3.org/1999/02/22-rdf-syntax-ns#"
   xmlns:svg="http://www.w3.org/2000/svg"
   xmlns="http://www.w3.org/2000/svg"
   xmlns:xlink="http://www.w3.org/1999/xlink"
   xmlns:sodipodi="http://sodipodi.sourceforge.net/DTD/sodipodi-0.dtd"
   xmlns:inkscape="http://www.inkscape.org/namespaces/inkscape"
   version="1.1"
   id="svg3942"
   width="1365.3333"
   height="1365.3333"
   viewBox="0 0 1365.3333 1365.3333"
   sodipodi:docname="pygetdp.svg"
   inkscape:version="0.92.4 5da689c313, 2019-01-14"
   inkscape:export-filename="/Users/geuzaine/src/gmsh/utils/icons/gmsh.png"
   inkscape:export-xdpi="96"
   inkscape:export-ydpi="96"
   inkscape:label="Standard Gmsh logo">
  <metadata
     id="metadata3948">
    <rdf:RDF>
      <cc:Work
         rdf:about="">
        <dc:format>image/svg+xml</dc:format>
        <dc:type
           rdf:resource="http://purl.org/dc/dcmitype/StillImage" />
        <dc:title></dc:title>
      </cc:Work>
    </rdf:RDF>
  </metadata>
  <defs
     id="defs3946">
    <linearGradient
       inkscape:collect="always"
       id="FEM_right">
      <stop
         style="stop-color:#2f286b;stop-opacity:1"
         offset="0"
         id="stop7458" />
      <stop
         style="stop-color:#5950a0;stop-opacity:1"
         offset="1"
         id="stop7460" />
    </linearGradient>
    <linearGradient
       inkscape:collect="always"
       id="Gmsh_right">
      <stop
         style="stop-color:#001000;stop-opacity:1"
         offset="0"
         id="stop7019" />
      <stop
         style="stop-color:#000000;stop-opacity:1"
         offset="1"
         id="stop7021" />
    </linearGradient>
    <linearGradient
       id="Gmsh_bottom"
       inkscape:collect="always">
      <stop
         id="stop7001"
         offset="0"
         style="stop-color:#000000;stop-opacity:1;" />
      <stop
         id="stop7003"
         offset="1"
         style="stop-color:#ffffff;stop-opacity:1" />
    </linearGradient>
    <linearGradient
       id="linearGradient6982"
       osb:paint="solid">
      <stop
         style="stop-color:#000000;stop-opacity:1;"
         offset="0"
         id="stop6980" />
    </linearGradient>
    <linearGradient
       inkscape:collect="always"
       id="linearGradient3984">
      <stop
         style="stop-color:#000000;stop-opacity:1;"
         offset="0"
         id="stop3980" />
      <stop
         style="stop-color:#000000;stop-opacity:0;"
         offset="1"
         id="stop3982" />
    </linearGradient>
    <linearGradient
       inkscape:collect="always"
       xlink:href="#linearGradient3984"
       id="linearGradient3986"
       x1="1374.7368"
       y1="1212.358"
       x2="-258.08997"
       y2="1149.2543"
       gradientUnits="userSpaceOnUse" />
    <filter
       style="color-interpolation-filters:sRGB;"
       inkscape:label="Drop Shadow"
       id="filter5509">
      <feFlood
         flood-opacity="0.498039"
         flood-color="rgb(0,0,0)"
         result="flood"
         id="feFlood5499" />
      <feComposite
         in="flood"
         in2="SourceGraphic"
         operator="in"
         result="composite1"
         id="feComposite5501" />
      <feGaussianBlur
         in="composite1"
         stdDeviation="20.9"
         result="blur"
         id="feGaussianBlur5503" />
      <feOffset
         dx="0"
         dy="22"
         result="offset"
         id="feOffset5505" />
      <feComposite
         in="offset"
         in2="offset"
         operator="atop"
         result="composite2"
         id="feComposite5507" />
    </filter>
    <linearGradient
       inkscape:collect="always"
       xlink:href="#Gmsh_bottom"
       id="linearGradient6994"
       x1="98.440674"
       y1="1140.7246"
       x2="1247.4576"
       y2="1140.7246"
       gradientUnits="userSpaceOnUse" />
    <linearGradient
       inkscape:collect="always"
       xlink:href="#Gmsh_bottom"
       id="linearGradient7007"
       gradientUnits="userSpaceOnUse"
       x1="1356.4407"
       y1="1220.7246"
       x2="-206.54234"
       y2="1114.7246" />
    <linearGradient
       inkscape:collect="always"
       xlink:href="#Gmsh_right"
       id="linearGradient7017"
       gradientUnits="userSpaceOnUse"
       x1="1351.4303"
       y1="1495.3979"
       x2="569.65436"
       y2="17.254723" />
    <linearGradient
       inkscape:collect="always"
       xlink:href="#Gmsh_right"
       id="linearGradient7051"
       gradientUnits="userSpaceOnUse"
       x1="1351.4303"
       y1="1495.3979"
       x2="569.65436"
       y2="17.254723"
       gradientTransform="matrix(0.72159831,0,0,0.72159831,196.23556,60.993142)" />
    <linearGradient
       inkscape:collect="always"
       xlink:href="#FEM_right"
       id="linearGradient7464"
       x1="1078.3035"
       y1="1022.6629"
       x2="615.56616"
       y2="143.02209"
       gradientUnits="userSpaceOnUse" />
    <linearGradient
       gradientTransform="matrix(1.0356763,0,0,1.0356763,-115.82214,-186.74662)"
       gradientUnits="userSpaceOnUse"
       y2="168.1012"
       x2="147.77737"
       y1="111.92053"
       x1="89.136749"
       id="linearGradient11307"
       xlink:href="#linearGradient11301"
       inkscape:collect="always" />
    <linearGradient
       id="linearGradient11301"
       inkscape:collect="always">
      <stop
         id="stop11303"
         offset="0"
         style="stop-color:#ffe052;stop-opacity:1" />
      <stop
         id="stop11305"
         offset="1"
         style="stop-color:#ffc331;stop-opacity:1" />
    </linearGradient>
    <linearGradient
       gradientTransform="matrix(1.0356763,0,0,1.0356763,-86.267186,-157.97638)"
       gradientUnits="userSpaceOnUse"
       y2="131.85291"
       x2="110.14919"
       y1="77.070274"
       x1="55.549179"
       id="linearGradient9521"
       xlink:href="#linearGradient9515"
       inkscape:collect="always" />
    <linearGradient
       id="linearGradient9515"
       inkscape:collect="always">
      <stop
         id="stop9517"
         offset="0"
         style="stop-color:#387eb8;stop-opacity:1" />
      <stop
         id="stop9519"
         offset="1"
         style="stop-color:#366994;stop-opacity:1" />
    </linearGradient>
  </defs>
  <sodipodi:namedview
     pagecolor="#ffffff"
     bordercolor="#666666"
     borderopacity="1"
     objecttolerance="10"
     gridtolerance="10"
     guidetolerance="10"
     inkscape:pageopacity="0"
     inkscape:pageshadow="2"
     inkscape:window-width="1280"
     inkscape:window-height="994"
     id="namedview3944"
     showgrid="false"
     inkscape:zoom="0.35355339"
     inkscape:cx="646.97997"
     inkscape:cy="709.27622"
     inkscape:window-x="0"
     inkscape:window-y="0"
     inkscape:window-maximized="1"
     inkscape:current-layer="g7502" />
  <g
     style="display:inline"
     inkscape:label="Gmsh"
     id="g7502"
     inkscape:groupmode="layer">
    <g
       id="g2640"
       transform="matrix(1.0779318,0,0,1.0779318,-37.209619,27.04736)">
      <path
         inkscape:connector-curvature="0"
         id="path7488"
         d="m 666.94708,159.65662 0.054,626.67354 379.03032,98.47158 z"
         style="opacity:1;vector-effect:none;fill:url(#linearGradient9521);fill-opacity:1;fill-rule:evenodd;stroke:#000000;stroke-width:1.55351436;stroke-linecap:butt;stroke-linejoin:miter;stroke-miterlimit:4;stroke-dasharray:none;stroke-dashoffset:0;stroke-opacity:1;marker:none;marker-start:none;marker-mid:none;marker-end:none" />
      <path
         sodipodi:nodetypes="cccc"
         inkscape:connector-curvature="0"
         id="path7490"
         d="M 666.94708,159.65662 286.96693,884.89141 667.00117,786.33016 Z"
         style="opacity:1;vector-effect:none;fill:#ececec;fill-opacity:1;fill-rule:evenodd;stroke:#000000;stroke-width:1.65708196;stroke-linecap:butt;stroke-linejoin:miter;stroke-miterlimit:4;stroke-dasharray:none;stroke-dashoffset:0;stroke-opacity:1;marker:none;marker-start:none;marker-mid:none;marker-end:none" />
      <path
         sodipodi:nodetypes="cccc"
         inkscape:connector-curvature="0"
         id="path7492"
         d="m 1046.0314,884.80174 -759.06447,0.09 380.03424,-98.5612 z"
         style="opacity:1;vector-effect:none;fill:url(#linearGradient11307);fill-opacity:1;fill-rule:evenodd;stroke:#000000;stroke-width:2.07135248;stroke-linecap:butt;stroke-linejoin:miter;stroke-miterlimit:4;stroke-dasharray:none;stroke-dashoffset:0;stroke-opacity:1;marker:none;marker-start:none;marker-mid:none;marker-end:none" />
    </g>
    <g
       style="display:none"
       inkscape:label="CAD text"
       id="g7500"
       inkscape:groupmode="layer">
      <text
         id="text7498"
         y="1204.7993"
         x="466.69046"
         style="font-style:normal;font-weight:normal;font-size:40px;line-height:125%;font-family:'Bitstream Vera Sans';letter-spacing:0px;word-spacing:0px;display:inline;fill:#565656;fill-opacity:1;stroke:none;stroke-width:1px;stroke-linecap:butt;stroke-linejoin:miter;stroke-opacity:1"
         xml:space="preserve"><tspan
           style="font-style:normal;font-variant:normal;font-weight:600;font-stretch:normal;font-size:192px;font-family:'Lucida Grande';-inkscape-font-specification:'Lucida Grande Semi-Bold';fill:#565656;fill-opacity:1"
           y="1204.7993"
           x="466.69046"
           id="tspan7496"
           sodipodi:role="line">CAD</tspan></text>
    </g>
    <g
       inkscape:groupmode="layer"
       id="g86"
       inkscape:label="SOLVER text"
       style="display:none">
      <text
         xml:space="preserve"
         style="font-style:normal;font-weight:normal;font-size:40px;line-height:125%;font-family:'Bitstream Vera Sans';letter-spacing:0px;word-spacing:0px;display:inline;fill:#565656;fill-opacity:1;stroke:none;stroke-width:1px;stroke-linecap:butt;stroke-linejoin:miter;stroke-opacity:1"
         x="308.69046"
         y="1204.7993"
         id="text84"><tspan
           sodipodi:role="line"
           id="tspan82"
           x="308.69046"
           y="1204.7993"
           style="font-style:normal;font-variant:normal;font-weight:600;font-stretch:normal;font-size:192px;font-family:'Lucida Grande';-inkscape-font-specification:'Lucida Grande Semi-Bold';fill:#565656;fill-opacity:1">SOLVER</tspan></text>
    </g>
    <g
       inkscape:groupmode="layer"
       id="g7702"
       inkscape:label="POST text"
       style="display:none">
      <text
         xml:space="preserve"
         style="font-style:normal;font-weight:normal;font-size:40px;line-height:125%;font-family:'Bitstream Vera Sans';letter-spacing:0px;word-spacing:0px;display:inline;fill:#565656;fill-opacity:1;stroke:none;stroke-width:1px;stroke-linecap:butt;stroke-linejoin:miter;stroke-opacity:1"
         x="430.69046"
         y="1204.7993"
         id="text7700"><tspan
           sodipodi:role="line"
           id="tspan7698"
           x="430.69046"
           y="1204.7993"
           style="font-style:normal;font-variant:normal;font-weight:600;font-stretch:normal;font-size:192px;font-family:'Lucida Grande';-inkscape-font-specification:'Lucida Grande Semi-Bold';fill:#565656;fill-opacity:1">POST</tspan></text>
    </g>
    <g
       inkscape:groupmode="layer"
       id="g7604"
       inkscape:label="MESH text"
       style="display:none">
      <text
         xml:space="preserve"
         style="font-style:normal;font-weight:normal;font-size:40px;line-height:125%;font-family:'Bitstream Vera Sans';letter-spacing:0px;word-spacing:0px;display:inline;fill:#565656;fill-opacity:1;stroke:none;stroke-width:1px;stroke-linecap:butt;stroke-linejoin:miter;stroke-opacity:1"
         x="402.69046"
         y="1204.7993"
         id="text7602"><tspan
           sodipodi:role="line"
           id="tspan7600"
           x="402.69046"
           y="1204.7993"
           style="font-style:normal;font-variant:normal;font-weight:600;font-stretch:normal;font-size:192px;font-family:'Lucida Grande';-inkscape-font-specification:'Lucida Grande Semi-Bold';fill:#565656;fill-opacity:1">MESH</tspan></text>
    </g>
    <g
       style="display:none"
       inkscape:label="Gmsh text"
       id="g870"
       inkscape:groupmode="layer">
      <text
         id="text868"
         y="1204.7993"
         x="402.69046"
         style="font-style:normal;font-weight:normal;font-size:40px;line-height:125%;font-family:'Bitstream Vera Sans';letter-spacing:0px;word-spacing:0px;display:inline;fill:#565656;fill-opacity:1;stroke:none;stroke-width:1px;stroke-linecap:butt;stroke-linejoin:miter;stroke-opacity:1"
         xml:space="preserve"
         inkscape:export-xdpi="96"
         inkscape:export-ydpi="96"><tspan
           style="font-style:normal;font-variant:normal;font-weight:600;font-stretch:normal;font-size:192px;font-family:'Lucida Grande';-inkscape-font-specification:'Lucida Grande Semi-Bold';fill:#565656;fill-opacity:1"
           y="1204.7993"
           x="402.69046"
           id="tspan866"
           sodipodi:role="line">Gmsh</tspan></text>
    </g>
    <g
       id="g2644"
       transform="matrix(1.1046944,0,0,1.1046944,-53.387989,35.781241)">
      <path
         style="fill:#ececec;stroke:#000000;stroke-width:1.79999995;stroke-miterlimit:4;stroke-dasharray:none;stroke-opacity:1"
         inkscape:connector-curvature="0"
         id="path2"
         d="m 72.388889,542.15893 c 27.020148,-0.69971 49.034581,-7.88537 66.070201,-21.77222 17.00871,-13.85993 28.33887,-32.99473 33.93668,-57.18908 5.62471,-24.16742 8.612,-65.58578 8.96186,-124.17432 0.34987,-58.61545 1.39944,-97.20797 3.14877,-115.80453 3.14875,-29.46919 9.04261,-53.17909 17.62768,-71.07591 8.58509,-17.89683 19.21554,-32.18737 31.86441,-42.89854 12.62197,-10.71119 28.76948,-18.865682 48.41562,-24.490396 13.34859,-3.49863 35.09391,-5.24794 65.26282,-5.24794 h 29.49611 v 82.648326 h -16.30898 c -36.49336,0 -60.71461,6.59357 -72.63686,19.75377 -11.94914,13.13331 -17.92372,42.52177 -17.92372,88.16538 0,91.96004 -1.93771,150.03724 -5.81311,174.23158 -6.29752,37.51604 -17.08943,66.44699 -32.34884,86.81975 -15.2594,20.37278 -39.21152,38.43106 -71.85639,54.22872 38.61944,16.14751 66.58154,40.8801 83.94011,74.03631 17.35857,33.15621 26.07823,87.38492 26.07823,162.84758 0,68.41159 0.69973,109.13024 2.09917,122.10202 2.7989,23.87137 9.90379,40.55713 21.31469,50.00341 11.41092,9.50016 33.77522,14.20986 67.1198,14.20986 h 16.309 v 82.6213 h -29.49613 c -34.39418,0 -59.31515,-2.7988 -74.73603,-8.4235 -22.47194,-8.0737 -41.04157,-21.0456 -55.78962,-39.1308 -14.74806,-18.0852 -24.30201,-41.0416 -28.68874,-68.78838 -4.38675,-27.74682 -6.75505,-73.17511 -7.10491,-136.31183 -0.34987,-63.19058 -3.33714,-106.86958 -8.96186,-131.09083 -5.5978,-24.19434 -16.92797,-43.32915 -33.93668,-57.37747 -17.0087,-14.02142 -39.023133,-21.36853 -66.043281,-22.09518 z" />
      <path
         style="fill:#ececec;stroke:#000000;stroke-width:1.79999995;stroke-miterlimit:4;stroke-dasharray:none;stroke-opacity:1"
         inkscape:connector-curvature="0"
         id="path8"
         d="m 1262.2129,542.05533 v 85.79708 c -27.0202,0.69973 -49.0345,8.07376 -66.0703,22.09518 -17.0085,14.0214 -28.3388,33.15621 -33.9635,57.21599 -5.5979,24.03288 -8.5852,65.26282 -8.935,123.87827 -0.3499,58.61542 -1.3995,97.20795 -3.1486,115.80451 -3.1489,29.819 -9.0427,53.69044 -17.6277,71.42584 -8.5852,17.7084 -19.2156,31.9452 -31.8645,42.6294 -12.649,10.6842 -28.7696,18.758 -48.4157,24.3827 -13.3486,3.8754 -35.1208,5.7861 -65.2897,5.7861 h -29.4961 v -82.6213 h 16.309 c 36.4934,0 60.7146,-6.486 72.6369,-19.64615 11.9222,-13.16017 17.8967,-42.81779 17.8967,-88.78434 0,-87.73478 1.5879,-143.36294 4.7366,-166.85755 5.6248,-38.94241 16.8474,-70.02634 33.6945,-93.35949 16.8472,-23.33314 40.7187,-41.57983 71.5874,-54.55165 -40.342,-19.32319 -68.7885,-44.75551 -85.2858,-76.51227 -16.4705,-31.75676 -24.7327,-85.42031 -24.7327,-160.85606 0,-68.43852 -0.8611,-109.31862 -2.6374,-122.6672 -2.4489,-23.52156 -9.3925,-39.91127 -20.7764,-49.223 -11.384,-9.31174 -33.7752,-13.96759 -67.1198,-13.96759 h -16.309 V 79.402399 h 29.4961 c 34.3672,0 59.3151,2.798907 74.736,8.423612 22.472,7.7239 41.0416,20.722629 55.7897,38.969319 14.7481,18.24668 24.302,41.22997 28.6887,68.94985 4.3867,27.71987 6.755,73.1751 7.1049,136.33876 0.3498,63.16366 3.3371,106.76192 8.9348,130.84862 5.6249,24.03287 16.9552,42.97929 33.9638,57.02761 17.0626,14.02142 39.0769,21.39545 66.0971,22.09516 z" />
    </g>
  </g>
</svg>
